…
```r
class(df) #It's a data.frame with attributes for extra info
#> [1] "spec_tbl_df" "tbl_df"      "tbl"         "data.frame"
```

If you type the name of the tibble...


```r
df
#> # A tibble: 1,600 × 11
#>   Participant Block version Trial Difficulty Part    Start  Stop PicNumber video
#>         <dbl> <dbl> <chr>   <dbl> <chr>      <chr>   <dbl> <dbl>     <dbl> <chr>
#> 1        1002     1 normal      1 easy       questi…  48.6  54.4        37 <NA> 
#> 2        1002     1 normal      1 easy       anwser   54.8  56.8        37 <NA> 
#> 3        1002     1 normal      2 hard       questi…  59    64.3        18 <NA> 
#> 4        1002     1 normal      2 hard       anwser   64    65.8        18 <NA> 
#> 5        1002     1 normal      3 hard       questi…  68    73.6        20 <NA> 
#> 6        1002     1 normal      3 hard       anwser   73.8  75          20 <NA> 
#> # … with 1,594 more rows, and 1 more variable: X11 <chr>
```
…
