…
<code>ready.Rdata</code> has multiple dataframes within it. This is the the helpful thing about <code>.RData</code> files. They can contain all of the dataframes you need for a project or analysis.


```r
df <- as_tibble(ccolor %>%
  select(subject = s, congruency = con, stimulus =S,
          response = R, reactionTime = RT))
```



```r

tbl_df(ccolor) #Converts data to tbl class - Easier to view
#> # A tibble: 6,400 x 5
#>   s     con         S     R        RT
#>   <fct> <chr>       <fct> <chr> <dbl>
#> 1 1     congruent   blue  blue   1023
#> 2 1     incongruent blue  red     665
#> 3 1     congruent   red   red    1568
#> 4 1     congruent   blue  blue    955
#> 5 1     incongruent red   blue    792
#> 6 1     congruent   red   red     452
#> # ... with 6,394 more rows
```
…
summarise(ccolor, count = n())
#>   count
#> 1  6400
```

Now let's do some descriptives...


```r
ccolor %>%
  group_by(s) %>%
  summarise(nrow(.)) 
#> # A tibble: 20 x 2
#>   s     `nrow(.)`
#>   <fct>     <int>
#> 1 1          6400
#> 2 2          6400
#> 3 3          6400
#> 4 4          6400
#> 5 5          6400
#> 6 6          6400
#> # ... with 14 more rows
…
Above I used <code>group_by(s)</code>, which groups by participant, <code>summarise()</code> with <code>nrow(.)</code>, which counts the number of rows,
and <code>spread()</code>, which takes the column s, turns each row into a column, and puts the value argument in that column.

There's also <code>filter()</code>, <code>gather()</code>, <code>separate()</code>, <code>unite()</code>, <code>select()</code>, <code>distinct()</code>, <code>sample_n()</code>, <code>slice()</code>, and many more.

For example:


```r
as_tibble(ccolor %>%
  filter(s == 1))# "==" is a logic operator, which works with most classes of data
#> # A tibble: 320 x 5
#>   s     con         S     R        RT
#>   <fct> <chr>       <fct> <chr> <dbl>
#> 1 1     congruent   blue  blue   1023
#> 2 1     incongruent blue  red     665
#> 3 1     congruent   red   red    1568
#> 4 1     congruent   blue  blue    955
#> 5 1     incongruent red   blue    792
#> 6 1     congruent   red   red     452
#> # ... with 314 more rows
…
```

In papers, you want to report the proportion of data you have removed and the criteria with which you removed that data.

Now you have the slow responses, but a more appropriate standard might be removing data
above three standard deviations from the mean for each participant's own distribution.
Let's try that now...

```r
newdf %>% #Step 1 is to group by the subject and get the mean and sd
  group_by(s) %>%
  mutate(mRT = mean(RT), RTsd = sd(RT))
#> # A tibble: 6,399 x 7
#> # Groups:   s [20]
#>   s     con         S     R        RT   mRT  RTsd
#>   <fct> <chr>       <fct> <chr> <dbl> <dbl> <dbl>
#> 1 1     congruent   blue  blue   1023  790.  775.
#> 2 1     incongruent blue  red     665  790.  775.
#> 3 1     congruent   red   red    1568  790.  775.
#> 4 1     congruent   blue  blue    955  790.  775.
#> 5 1     incongruent red   blue    792  790.  775.
#> 6 1     congruent   red   red     452  790.  775.
#> # ... with 6,393 more rows

newdf %>% #Step 2 is to make a cutoff 3 standard deviations above the mean for each participant
  group_by(s) %>%
  mutate(mRT = mean(RT), RTsd = sd(RT)) %>%
  mutate(cutoff = mRT + 3*RTsd)
#> # A tibble: 6,399 x 8
#> # Groups:   s [20]
#>   s     con         S     R        RT   mRT  RTsd cutoff
#>   <fct> <chr>       <fct> <chr> <dbl> <dbl> <dbl>  <dbl>
#> 1 1     congruent   blue  blue   1023  790.  775.  3115.
#> 2 1     incongruent blue  red     665  790.  775.  3115.
#> 3 1     congruent   red   red    1568  790.  775.  3115.
#> 4 1     congruent   blue  blue    955  790.  775.  3115.
#> 5 1     incongruent red   blue    792  790.  775.  3115.
#> 6 1     congruent   red   red     452  790.  775.  3115.
#> # ... with 6,393 more rows


newdf %>% #Step 3 Let's clean up the columns we need and the ones we don't
  group_by(s) %>%
  mutate(mRT = mean(RT), RTsd = sd(RT)) %>%
  mutate(cutoff = mRT + 3*RTsd) %>%
  select(-mRT, -RTsd)
#> # A tibble: 6,399 x 6
#> # Groups:   s [20]
#>   s     con         S     R        RT cutoff
#>   <fct> <chr>       <fct> <chr> <dbl>  <dbl>
#> 1 1     congruent   blue  blue   1023  3115.
#> 2 1     incongruent blue  red     665  3115.
#> 3 1     congruent   red   red    1568  3115.
#> 4 1     congruent   blue  blue    955  3115.
#> 5 1     incongruent red   blue    792  3115.
#> 6 1     congruent   red   red     452  3115.
#> # ... with 6,393 more rows
…
