…
```r
gss_cat %>%
  count(race) #We can see counts of each race or religion
#> # A tibble: 3 × 2
#>   race      n
#>   <fct> <int>
#> 1 Other  1959
#> 2 Black  3129
#> 3 White 16395

gss_cat %>%
  count(relig) %>%
  arrange(desc(n)) #We can arrange them in descending order on the count column (n)
#> # A tibble: 15 × 2
#>   relig          n
#>   <fct>      <int>
#> 1 Protestant 10846
#> 2 Catholic    5124
#> 3 None        3523
#> 4 Christian    689
#> 5 Jewish       388
#> 6 Other        224
#> # … with 9 more rows

gss_cat %>%
  count(age) #Or we can count by age...
#> # A tibble: 73 × 2
#>     age     n
#>   <int> <int>
#> 1    18    91
#> 2    19   249
#> 3    20   251
#> 4    21   278
#> 5    22   298
#> 6    23   361
#> # … with 67 more rows
…
Let's get the average number of hours spent watching TV per day across religions:

Note: if you put () on the outside of your assignment, it will also print


```r
(relig_summary <- df %>% #Get your data.frame and pipe into the columns
  group_by(relig) %>% #group by religion so that each summary will be for one religion
  summarise( #Get a summary for the following transformations
    age = mean(age, na.rm = T), #Get the mean of age and name it "age"
    tvhours = mean(tvhours, na.rm = TRUE), #Get the mean of tv hours and name it "tvhours"
    n = n() #Count the number of observations in each group
  ))
#> # A tibble: 15 × 4
#>   relig                     age tvhours     n
#>   <fct>                   <dbl>   <dbl> <int>
#> 1 No answer                49.5    2.72    93
#> 2 Don't know               35.9    4.62    15
#> 3 Inter-nondenominational  40.0    2.87   109
#> 4 Native american          38.9    3.46    23
#> 5 Christian                40.1    2.79   689
#> 6 Orthodox-christian       50.4    2.42    95
#> # … with 9 more rows
```
…
levels(relig_summary$relig)
#>  [1] "No answer"               "Don't know"             
#>  [3] "Inter-nondenominational" "Native american"        
#>  [5] "Christian"               "Orthodox-christian"     
#>  [7] "Moslem/islam"            "Other eastern"          
#>  [9] "Hinduism"                "Buddhism"               
#> [11] "Other"                   "None"                   
#> [13] "Jewish"                  "Catholic"               
#> [15] "Protestant"              "Not applicable"

(testlevel <- relig_summary %>%
  mutate(relig = fct_reorder(relig, tvhours)))
#> # A tibble: 15 × 4
#>   relig                     age tvhours     n
#>   <fct>                   <dbl>   <dbl> <int>
#> 1 No answer                49.5    2.72    93
#> 2 Don't know               35.9    4.62    15
#> 3 Inter-nondenominational  40.0    2.87   109
#> 4 Native american          38.9    3.46    23
#> 5 Christian                40.1    2.79   689
#> 6 Orthodox-christian       50.4    2.42    95
#> # … with 9 more rows
…
This is most important for plotting

Let's look at how average age varies across reported income level:


```r
(rincome_summary <- df %>% #Save your df summary as something descriptive
  group_by(rincome) %>% #Group by income so that all summaries will be for those levels
  summarise( #Create summaries for the following:
    age = mean(age, na.rm = TRUE), #Mean age with Na's removed named "age"
    tvhours = mean(tvhours, na.rm = TRUE), #Mean tvhours named "tvhours"
    n = n() #Count number of observations in each column
  ))
#> # A tibble: 16 × 4
#>   rincome          age tvhours     n
#>   <fct>          <dbl>   <dbl> <int>
#> 1 No answer       45.5    2.90   183
#> 2 Don't know      45.6    3.41   267
#> 3 Refused         47.6    2.48   975
#> 4 $25000 or more  44.2    2.23  7363
#> 5 $20000 - 24999  41.5    2.78  1283
#> 6 $15000 - 19999  40.0    2.91  1048
#> # … with 10 more rows
…
<img src="04_TransformationDay2_files/figure-html/challenge1-1.png" width="70%" style="display: block; margin: auto;" /><img src="04_TransformationDay2_files/figure-html/challenge1-2.png" width="70%" style="display: block; margin: auto;" />

How would you determine this?


## Modifying Factor Levels

Here's a count of the levels in party_id

```r
df %>% count(partyid)
#> # A tibble: 10 × 2
#>   partyid                n
#>   <fct>              <int>
#> 1 No answer            154
#> 2 Don't know             1
#> 3 Other party          393
#> 4 Strong republican   2314
#> 5 Not str republican  3032
#> 6 Ind,near rep        1791
#> # … with 4 more rows
```
<code>fct_recode</code> let's us rename variables (new varname left = old varname right)


```r
df %>%
  mutate(partyid = fct_recode(partyid,
                              "Republican, strong"    = "Strong republican",
                              "Republican, weak"      = "Not str republican",
                              "Independent, near rep" = "Ind,near rep",
                              "Independent, near dem" = "Ind,near dem",
                              "Democrat, weak"        = "Not str democrat",
                              "Democrat, strong"      = "Strong democrat"
  )) %>%
  count(partyid) #Count party ID
#> # A tibble: 10 × 2
#>   partyid                   n
#>   <fct>                 <int>
#> 1 No answer               154
#> 2 Don't know                1
#> 3 Other party             393
#> 4 Republican, strong     2314
#> 5 Republican, weak       3032
#> 6 Independent, near rep  1791
#> # … with 4 more rows
```
…
Pretty cool huh?! We just created in groupings to plot or do analyses on.

Sometimes you just want to lump together all the small groups to make a plot or table simpler. 
That’s the job of <code>fct_lump()</code>


```r
df %>%
  count(relig) #This is before lumping
#> # A tibble: 15 × 2
#>   relig                       n
#>   <fct>                   <int>
#> 1 No answer                  93
#> 2 Don't know                 15
#> 3 Inter-nondenominational   109
#> 4 Native american            23
#> 5 Christian                 689
#> 6 Orthodox-christian         95
#> # … with 9 more rows
…
 It looks like Protestant had the largest count, so by default it grouped everything else and Protestant together. 

You can collapse across specified lumps...

```r
df %>%
  mutate(relig = fct_lump(relig, n = 10)) %>% #Specify lumps here
  count(relig, sort = TRUE)
#> # A tibble: 10 × 2
#>   relig          n
#>   <fct>      <int>
#> 1 Protestant 10846
#> 2 Catholic    5124
#> 3 None        3523
#> 4 Christian    689
#> 5 Other        458
#> 6 Jewish       388
#> # … with 4 more rows
```

## Play time 

Answer some interesting questions about this dataset

```r
df
#> # A tibble: 21,483 × 9
#>    year marital         age race  rincome        partyid   relig  denom  tvhours
#>   <int> <fct>         <int> <fct> <fct>          <fct>     <fct>  <fct>    <int>
#> 1  2000 Never married    26 White $8000 to 9999  Ind,near… Prote… South…      12
#> 2  2000 Divorced         48 White $8000 to 9999  Not str … Prote… Bapti…      NA
#> 3  2000 Widowed          67 White Not applicable Independ… Prote… No de…       2
#> 4  2000 Never married    39 White Not applicable Ind,near… Ortho… Not a…       4
#> 5  2000 Divorced         25 White Not applicable Not str … None   Not a…       1
#> 6  2000 Married          25 White $20000 - 24999 Strong d… Prote… South…      NA
#> # … with 21,477 more rows
```
…
df %>%
  group_by(relig) %>%
  count(race) %>%
  mutate(prop = n/sum(n)) %>%
  ggplot(mapping = aes(x = relig, y = prop, color = race)) +
  geom_line(aes(group = race)) + geom_point() +
  theme(axis.text.x = element_text(angle = 45, hjust = 1))


df %>%
  count(relig, race) %>%
  group_by(relig) %>%
  mutate(prop = n/sum(n))
#> # A tibble: 44 × 4
#> # Groups:   relig [15]
#>   relig      race      n  prop
#>   <fct>      <fct> <int> <dbl>
#> 1 No answer  Other    14 0.151
#> 2 No answer  Black    16 0.172
#> 3 No answer  White    63 0.677
#> 4 Don't know Other     3 0.2  
#> 5 Don't know Black     3 0.2  
#> 6 Don't know White     9 0.6  
#> # … with 38 more rows
```
…
