3 Importing Data | Psychological Measurement in R
…
df <- read_csv("data/WorkingMemoryEyeTracking.csv") #Read in csv and turn into a tibble

3.1 What’s a tibble?

“Tibbles are a modern take on data frames. They keep the features that have stood the test of time, and drop the features that used to be convenient but are now frustrating (i.e. converting character vectors to factors).”

— Tibbles Page

class(df) #It's a data.frame with attributes for extra info
#> [1] "tbl_df"     "tbl"        "data.frame"

If you type the name of the tibble…

df
#> # A tibble: 1,600 x 11
#>   Participant Block version Trial Difficulty Part  Start  Stop PicNumber
#>         <int> <int> <chr>   <int> <chr>      <chr> <dbl> <dbl>     <int>
#> 1        1002     1 normal      1 easy       ques…  48.6  54.4        37
#> 2        1002     1 normal      1 easy       anws…  54.8  56.8        37
#> 3        1002     1 normal      2 hard       ques…  59    64.3        18
#> 4        1002     1 normal      2 hard       anws…  64    65.8        18
#> 5        1002     1 normal      3 hard       ques…  68    73.6        20
#> 6        1002     1 normal      3 hard       anws…  73.8  75          20
#> # ... with 1,594 more rows, and 2 more variables: video <chr>, X11 <chr>
…
